Linear Regression Models: Generalized Linear Models
…
Framework we are working in extends very easily!

Generalized Linear Models

Lots of theory and connections with GLMs… focus on applications!

Framework we are working in extends very easily!

Consider a data where the response could come from a Poisson distribution

shipData <- read_table("../datasets/ships.dat") %>% select(-X1)
shipData

## # A tibble: 34 x 5
##   type  construction operation months damage
##   <chr> <chr>        <chr>      <int>  <int>
## 1 A     1960-64      1960-74      127      0
## 2 A     1960-64      1975-79       63      0
## 3 A     1965-69      1960-74     1095      3
## 4 A     1965-69      1975-79     1095      4
## 5 A     1970-74      1960-74     1512      6
## # ... with 29 more rows
…
Variance is also equal to \(\lambda\) (higher mean, more variable)

Inference usually centered on \(\lambda\)

Example applications

# of car accidents in a week

# of 911 calls in an hour

# of deaths by horse-kick in a year (classic example :)

Poisson Regression

## # A tibble: 34 x 5
##   type  construction operation months damage
##   <chr> <chr>        <chr>      <int>  <int>
## 1 A     1960-64      1960-74      127      0
## 2 A     1960-64      1975-79       63      0
## 3 A     1965-69      1960-74     1095      3
## 4 A     1965-69      1975-79     1095      4
## 5 A     1970-74      1960-74     1512      6
## # ... with 29 more rows

About the data:

type - ship type, coded 1-5 for A, B, C, D and E

Poisson Regression

## # A tibble: 34 x 5
##   type  construction operation months damage
##   <chr> <chr>        <chr>      <int>  <int>
## 1 A     1960-64      1960-74      127      0
## 2 A     1960-64      1975-79       63      0
## 3 A     1965-69      1960-74     1095      3
## 4 A     1965-69      1975-79     1095      4
## 5 A     1970-74      1960-74     1512      6
## # ... with 29 more rows

About the data:
- construction - year of construction (1=1960-64, 2=1965-70, 3=1970-74, 4=1975-79)

Poisson Regression

## # A tibble: 34 x 5
##   type  construction operation months damage
##   <chr> <chr>        <chr>      <int>  <int>
## 1 A     1960-64      1960-74      127      0
## 2 A     1960-64      1975-79       63      0
## 3 A     1965-69      1960-74     1095      3
## 4 A     1965-69      1975-79     1095      4
## 5 A     1970-74      1960-74     1512      6
## # ... with 29 more rows

About the data:
- operation - period of operation (1=1960-74, 2=1975-79)

Poisson Regression

## # A tibble: 34 x 5
##   type  construction operation months damage
##   <chr> <chr>        <chr>      <int>  <int>
## 1 A     1960-64      1960-74      127      0
## 2 A     1960-64      1975-79       63      0
## 3 A     1965-69      1960-74     1095      3
## 4 A     1965-69      1975-79     1095      4
## 5 A     1970-74      1960-74     1512      6
## # ... with 29 more rows

About the data:
- months - aggregated months of service, ranging from 63 to 20,370

Poisson Regression

## # A tibble: 34 x 5
##   type  construction operation months damage
##   <chr> <chr>        <chr>      <int>  <int>
## 1 A     1960-64      1960-74      127      0
## 2 A     1960-64      1975-79       63      0
## 3 A     1965-69      1960-74     1095      3
## 4 A     1965-69      1975-79     1095      4
## 5 A     1970-74      1960-74     1512      6
## # ... with 29 more rows

About the data:
- damage - damage incidents caused by waves to the forward section, ranging from 0 to 53

Poisson Regression

## # A tibble: 34 x 5
##   type  construction operation months damage
##   <chr> <chr>        <chr>      <int>  <int>
## 1 A     1960-64      1960-74      127      0
## 2 A     1960-64      1975-79       63      0
## 3 A     1965-69      1960-74     1095      3
## 4 A     1965-69      1975-79     1095      4
## 5 A     1970-74      1960-74     1512      6
## # ... with 29 more rows
…
