Improving R Programs: Parallel Computing
…
parallel package function we'll use has syntax similar to apply() family

Problem to parallelize:

Cross validation

Common method for assessing a predictive model

consider titanic data set

Parallel Computing

titanicData

## # A tibble: 1,310 x 14
##   pclass survived name  sex      age sibsp parch ticket  fare cabin
##    <int>    <int> <chr> <chr>  <dbl> <int> <int> <chr>  <dbl> <chr>
## 1      1        1 Alle~ fema~ 29         0     0 24160   211. B5   
## 2      1        1 Alli~ male   0.917     1     2 113781  152. C22 ~
## 3      1        0 Alli~ fema~  2         1     2 113781  152. C22 ~
## 4      1        0 Alli~ male  30         1     2 113781  152. C22 ~
## 5      1        0 Alli~ fema~ 25         1     2 113781  152. C22 ~
## # ... with 1,305 more rows, and 4 more variables: embarked <chr>,
## #   boat <chr>, body <int>, home.dest <chr>
…
