Unsupervised Learning: Principal Components
…
Reduces # of variables from \(p\) to \(m\)

Can be useful for visualizations

Can use PCs as predictors in a regression model (PC Regression)

Principal Components

Let's visualize the idea in two dimensions.

countyData <- read_csv("../datasets/counties.csv")
countyData

## # A tibble: 3,141 x 20
##   region county state   msa  pmsa pop.density   pop pop.change age6574
##   <chr>  <chr>  <chr> <int> <int>       <int> <int>      <dbl>   <dbl>
## 1 South  Autau~ AL     5240    NA          61 34222      11.9     5.70
## 2 South  Baldw~ AL     5160    NA          67 98280      35.4     9.20
## 3 South  Barbo~ AL       NA    NA          29 25417       2       8.20
## 4 South  Bibb   AL       NA    NA          28 16576       9.20    6.70
## 5 South  Blount AL     1000    NA          62 39248      10.6     7.40
## # ... with 3,136 more rows, and 11 more variables: age75 <dbl>,
## #   crime <int>, college <dbl>, income <int>, farm <dbl>, democrat <dbl>,
## #   republican <dbl>, Perot <dbl>, white <dbl>, black <dbl>, turnout <dbl>
…
