Nonlinear Methods: Regression & Classification Trees
…
Extension to more than one predictor is exactly the same idea

Instead of fitting a plane or saddle, fit a series of flat planes (mean for a given region)

County Level Data Set

Consider data on voting preferences by county

Use pct with college degree & population change in county to predict county level income

voting <- tbl_df(read.csv("../datasets/counties.csv", header = TRUE))
subVoting <- voting %>% select(college, pop.change, income)
subVoting

## # A tibble: 3,141 x 3
##   college pop.change income
##     <dbl>      <dbl>  <int>
## 1   14.5       11.9   32240
## 2   16.8       35.4   30199
## 3   11.8        2     23838
## 4    4.70       9.20  23714
## 5    7         10.6   26323
## # ... with 3,136 more rows
…
