Summarizing Data: Quantitative Data Graphs
…
Graphical Summaries

Quantitative Data - plots use ggplot2 (Scatter plot)

Probably most used graph!

Shows a point corresponding to each observation

scoresFull <- read_csv("../datasets/scoresFull.csv")
scoresFull

## # A tibble: 3,471 x 82
##   week  date  day   season awayTeam   AQ1   AQ2   AQ3   AQ4   AOT  AOT2
##   <chr> <chr> <chr>  <int> <chr>    <int> <int> <int> <int> <int> <int>
## 1 1     5-Sep Thu     2002 San Fra~     3     0     7     6    -1    -1
## 2 1     8-Sep Sun     2002 Minneso~     3    17     0     3    -1    -1
## 3 1     8-Sep Sun     2002 New Orl~     6     7     7     0     6    -1
## 4 1     8-Sep Sun     2002 New Yor~     0    17     3    11     6    -1
## 5 1     8-Sep Sun     2002 Arizona~    10     3     3     7    -1    -1
## # ... with 3,466 more rows, and 71 more variables: AFinal <int>,
## #   homeTeam <chr>, HQ1 <int>, HQ2 <int>, HQ3 <int>, HQ4 <int>, HOT <int>,
## #   HOT2 <int>, HFinal <int>, stadium <chr>, startTime <time>, toss <chr>,
## #   roof <chr>, surface <chr>, duration <int>, attendance <chr>,
## #   weather <chr>, vegasLine <chr>, OU <chr>, AfirstDowns <int>,
## #   AnetPassYds <int>, AtotalYds <int>, Aturnovers <int>,
## #   AtotalPlays <int>, HfirstDowns <int>, HnetPassYds <int>,
## #   HtotalYds <int>, Hturnovers <int>, HtotalPlays <int>, OUvalue <dbl>,
## #   OUresult <chr>, awayRushAtt <int>, awayRushYds <int>,
…
Graphical Summaries

Quantitative Data - plots use ggplot2 (Line Plot)

Connects dots

Most useful with a time type variable

oneDate <- paste(scoresFull$date[1], scoresFull$season[1], sep = "-"); oneDate

## [1] "5-Sep-2002"

unite(scoresFull, Date, sep = "-", date, season, remove = FALSE) %>% select(Date, everything())

## # A tibble: 3,471 x 83
##   Date  week  date  day   season awayTeam   AQ1   AQ2   AQ3   AQ4   AOT
##   <chr> <chr> <chr> <chr>  <int> <chr>    <int> <int> <int> <int> <int>
## 1 5-Se~ 1     5-Sep Thu     2002 San Fra~     3     0     7     6    -1
## 2 8-Se~ 1     8-Sep Sun     2002 Minneso~     3    17     0     3    -1
## 3 8-Se~ 1     8-Sep Sun     2002 New Orl~     6     7     7     0     6
## 4 8-Se~ 1     8-Sep Sun     2002 New Yor~     0    17     3    11     6
## 5 8-Se~ 1     8-Sep Sun     2002 Arizona~    10     3     3     7    -1
## # ... with 3,466 more rows, and 72 more variables: AOT2 <int>,
## #   AFinal <int>, homeTeam <chr>, HQ1 <int>, HQ2 <int>, HQ3 <int>,
## #   HQ4 <int>, HOT <int>, HOT2 <int>, HFinal <int>, stadium <chr>,
## #   startTime <time>, toss <chr>, roof <chr>, surface <chr>,
## #   duration <int>, attendance <chr>, weather <chr>, vegasLine <chr>,
## #   OU <chr>, AfirstDowns <int>, AnetPassYds <int>, AtotalYds <int>,
## #   Aturnovers <int>, AtotalPlays <int>, HfirstDowns <int>,
## #   HnetPassYds <int>, HtotalYds <int>, Hturnovers <int>,
## #   HtotalPlays <int>, OUvalue <dbl>, OUresult <chr>, awayRushAtt <int>,
…
subScores <- scoresFull %>% 
  filter(homeTeam %in% c("Pittsburgh Steelers", "Cleveland Browns",
                         "Baltimore Ravens", "Cincinnati Bengals")) %>% 
  group_by(season, homeTeam) %>%
  summarise(homeAvgYds = mean(homePassYds + homeRushYds))

Graphical Summaries

Quantitative Data - plots use ggplot2 (Line Plot)

subScores

## # A tibble: 52 x 3
## # Groups:   season [13]
##   season homeTeam            homeAvgYds
##    <int> <chr>                    <dbl>
## 1   2002 Baltimore Ravens          294 
## 2   2002 Cincinnati Bengals        326 
## 3   2002 Cleveland Browns          325.
## 4   2002 Pittsburgh Steelers       408.
## 5   2003 Baltimore Ravens          333.
## # ... with 47 more rows
…
