Reading Data: JSON & XML Data
…
## [1] "[{\"_id\":\"5b74ebd5fb6fc0739646754c\",\"spell\":\"Aberto\",\"type\":\"Charm\",\"effect\":\"opens objects\"},{\"_id\":"

Resources for Other Data Sources

APIs - Quick Example with JSON

Query Harry Potter database https://www.potterapi.com/

Default response format is JSON

spellDataDF <- jsonlite::fromJSON(spellData)
tbl_df(spellDataDF)

## # A tibble: 151 x 5
##   `_id`                spell          type      effect                     `__v`
##   <chr>                <chr>          <chr>     <chr>                      <int>
## 1 5b74ebd5fb6fc073964~ Aberto         Charm     opens objects                 NA
## 2 5b74ecfa3228320021a~ Accio          Charm     Summons an object              0
## 3 5b74ed2f3228320021a~ Age Line       Enchantm~ Hides things from younger~     0
## 4 5b74ed453228320021a~ Aguamenti      Charm     shoots water from wand         0
## 5 5b74ed583228320021a~ Alarte Ascend~ Spell     shoots things high in the~     0
## # ... with 146 more rows
…
