Reading Data: Databases and SQL
…
How dplry works with a database

It never pulls data into R unless you explicitly ask for it

It delays doing any work until the last possible moment - it collects together everything you want to do and then sends it to the database in one step

Databases and SQL

collect() will return everything from the query

temp <- tbl(my_db, "Pitching") %>% select(ends_with("ID")) %>% 
    filter(yearID == 2010) %>% collect()
temp

## # A tibble: 684 x 4
##   playerID  yearID teamID lgID 
##   <chr>      <int> <chr>  <chr>
## 1 aardsda01   2010 SEA    AL   
## 2 abadfe01    2010 HOU    NL   
## 3 accarje01   2010 TOR    AL   
## 4 aceveal01   2010 NYA    AL   
## 5 acostma01   2010 NYN    NL   
## # ... with 679 more rows
…
dplyr does not give super 'readable' SQL code necessarily

## <SQL>
## SELECT *
## FROM (SELECT `playerID`, `yearID`, `teamID`, `lgID`
## FROM `Pitching`)
## WHERE (`yearID` = 2010.0)

tbl(my_db, sql(
"SELECT `playerID`, `yearID`, `teamID`, `lgID`
        FROM `Pitching`
WHERE (`yearID` = 2010.0)")) %>% collect()

## # A tibble: 684 x 4
##   playerID  yearID teamID lgID 
##   <chr>      <int> <chr>  <chr>
## 1 aardsda01   2010 SEA    AL   
## 2 abadfe01    2010 HOU    NL   
## 3 accarje01   2010 TOR    AL   
## 4 aceveal01   2010 NYA    AL   
## 5 acostma01   2010 NYN    NL   
## # ... with 679 more rows
…
## # A tibble: 2 x 3
##   color    num size 
##   <chr>  <int> <chr>
## 1 green      1 S    
## 2 yellow     2 M

Subsetting/Manipulating Data

dplyr code:

inner_join(select(tbl(my_db, "Pitching"), "playerID", "yearID", "W"), 
             select(tbl(my_db, "AwardsPlayers"), "playerID", "yearID", "awardID")) %>% 
  filter(yearID > 2010) %>% collect()

## # A tibble: 78 x 4
##   playerID  yearID     W awardID                 
##   <chr>      <int> <int> <chr>                   
## 1 axforjo01   2011     2 Rolaids Relief Man Award
## 2 buehrma01   2011    13 Gold Glove              
## 3 hellije01   2011    13 Rookie of the Year      
## 4 hudsoda01   2011    16 Silver Slugger          
## 5 kershcl01   2011    21 Cy Young Award          
## # ... with 73 more rows
…
Subsetting/Manipulating Data

tbl(my_db, sql(
"SELECT `LHS`.`playerID` AS `playerID`, `LHS`.`yearID` AS `yearID`, `LHS`.`W` AS `W`, `RHS`.`awardID` AS `awardID`  
FROM (SELECT `playerID`, `yearID`, `W`
               FROM `Pitching`) AS `LHS`
INNER JOIN (SELECT `playerID`, `yearID`, `awardID`
               FROM `AwardsPlayers`) AS `RHS`
ON (`LHS`.`playerID` = `RHS`.`playerID` AND `LHS`.`yearID` = `RHS`.`yearID`)")) %>% collect()

## # A tibble: 1,659 x 4
##   playerID  yearID     W awardID              
##   <chr>      <int> <int> <chr>                
## 1 bondto01    1877    40 Pitching Triple Crown
## 2 heckegu01   1884    52 Pitching Triple Crown
## 3 radboch01   1884    59 Pitching Triple Crown
## 4 keefeti01   1888    35 Pitching Triple Crown
## 5 clarkjo01   1889    49 Pitching Triple Crown
## # ... with 1,654 more rows
…
